{"statusCode":200,"code":200,"payload":{"page":1,"currentPage":1,"pageSize":10,"totalPages":6,"total":58,"filter":{"sort":"mqtt_id-ASC","keyword":"","idhost":"","status":"","mqtt_id":"","mqtt_type_id":"","location_id":"","secret":"","expire_in":"","token_value":"","org":"","bucket":"","envavorment":"","createddate":"","isCount":0,"page":1,"pageSize":10},"data":[{"mqtt_id":1,"idhost":1,"host_name":"172.25.99.60","sort":1,"mqtt_type_id":1,"mqtt_name":"อาคาร 1 ชั้น 1","location_id":1,"location_name":"ธกส ระบบพัดลม","location_detail":"Fan","host":"172.25.99.60","port":"1883","username":"root","password":"root","secret":"Na@0955##","expire_in":"365d","token_value":"BcKyMJK-AVist7GQkkb30Fm-LZZnAVeQrG4hXWetVtYow5Wal_dIYoRYFLAV1vqlQM0J7o_OXTP62P6ktYxB3Q==","org":"cmon_org","bucket":"BAACTW01","envavorment":"measurement","updateddate":"2026-01-11 18:15:57","type_name":"MQTT","status":1,"latitude":"10.025","longitude":"-15.665","mqtt_main_id":1,"device_count":3,"device":[{"device_id":1,"type_id":1,"hardware_id":1,"type_name":"Sensor","device_name":"temperature","status_warning":"32","recovery_warning":"1","status_alert":"35","recovery_alert":"25","time_life":3600,"period":"35","model":"cmon","vendor":"cmon","status":1,"unit":"°C","mqtt_id":1,"mqtt_data_value":"BAACTW01/DATA","mqtt_data_control":"BAACTW01/CONTROL","mqtt_control_on":"1","mqtt_control_off":"0","measurement":"temperature","location_name":"ธกส ระบบพัดลม","mqtt_name":"อาคาร 1 ชั้น 1","mqtt_org":"cmon_org","mqtt_bucket":"BAACTW01","mqtt_envavorment":"measurement","max":"35","min":"25","action_id":1,"mqtt_host":"172.25.99.60","mqtt_port":1883,"mqtt_device_name":"temperature","mqtt_status_over_name":"overFan1","mqtt_status_data_name":"{\"0\":\"temperature\",\"1\":\"contRelay1\",\"2\":\"fan1\",\"3\":\"actRelay1\",\"4\":\"overFan1\",\"5\":\"contRelay2\",\"6\":\"fan2\",\"7\":\"actRelay2\",\"8\":\"overFan2\"}","mqtt_act_relay_name":"actRelay1","mqtt_control_relay_name":"contRelay1"},{"device_id":2,"type_id":2,"hardware_id":2,"type_name":"Device IO Fan1","device_name":"Fan1","status_warning":"0","recovery_warning":"1","status_alert":"0","recovery_alert":"1","time_life":3600,"period":"35","model":"cmon","vendor":"cmon","status":1,"unit":"°C","mqtt_id":1,"mqtt_data_value":"BAACTW01/DATA","mqtt_data_control":"BAACTW01/CONTROL","mqtt_control_on":"1","mqtt_control_off":"0","measurement":"fan1","location_name":"ธกส ระบบพัดลม","mqtt_name":"อาคาร 1 ชั้น 1","mqtt_org":"cmon_org","mqtt_bucket":"BAACTW01","mqtt_envavorment":"measurement","max":"35","min":"25","action_id":1,"mqtt_host":"172.25.99.60","mqtt_port":1883,"mqtt_device_name":"fan1","mqtt_status_over_name":"overFan1","mqtt_status_data_name":"{\"0\":\"temperature\",\"1\":\"contRelay1\",\"2\":\"fan1\",\"3\":\"actRelay1\",\"4\":\"overFan1\",\"5\":\"contRelay2\",\"6\":\"fan2\",\"7\":\"actRelay2\",\"8\":\"overFan2\"}","mqtt_act_relay_name":"actRelay1","mqtt_control_relay_name":"contRelay1"},{"device_id":3,"type_id":3,"hardware_id":2,"type_name":"Device IO Fan2","device_name":"Fan2","status_warning":"0","recovery_warning":"1","status_alert":"0","recovery_alert":"1","time_life":3600,"period":"35","model":"cmon","vendor":"cmon","status":1,"unit":"°C","mqtt_id":1,"mqtt_data_value":"BAACTW01/DATA","mqtt_data_control":"BAACTW01/CONTROL","mqtt_control_on":"1","mqtt_control_off":"0","measurement":"fan2","location_name":"ธกส ระบบพัดลม","mqtt_name":"อาคาร 1 ชั้น 1","mqtt_org":"cmon_org","mqtt_bucket":"BAACTW01","mqtt_envavorment":"measurement","max":"35","min":"25","action_id":1,"mqtt_host":"172.25.99.60","mqtt_port":1883,"mqtt_device_name":"fan2","mqtt_status_over_name":"overFan2","mqtt_status_data_name":"{\"0\":\"temperature\",\"1\":\"contRelay1\",\"2\":\"fan1\",\"3\":\"actRelay1\",\"4\":\"overFan1\",\"5\":\"contRelay2\",\"6\":\"fan2\",\"7\":\"actRelay2\",\"8\":\"overFan2\"}","mqtt_act_relay_name":"actRelay2","mqtt_control_relay_name":"contRelay2"}]},{"mqtt_id":2,"idhost":1,"host_name":"172.25.99.60","sort":2,"mqtt_type_id":1,"mqtt_name":"อาคาร 1 ชั้น 2","location_id":1,"location_name":"ธกส ระบบพัดลม","location_detail":"Fan","host":"172.25.99.60","port":"1883","username":"root","password":"root","secret":"Na@0955##","expire_in":"365d","token_value":"BcKyMJK-AVist7GQkkb30Fm-LZZnAVeQrG4hXWetVtYow5Wal_dIYoRYFLAV1vqlQM0J7o_OXTP62P6ktYxB3Q==","org":"cmon_org","bucket":"BAACTW02","envavorment":"measurement","updateddate":"2026-01-11 18:15:57","type_name":"MQTT","status":1,"latitude":"1.022","longitude":"-12.52","mqtt_main_id":1,"device_count":3,"device":[{"device_id":4,"type_id":1,"hardware_id":1,"type_name":"Sensor","device_name":"temperature","status_warning":"32","recovery_warning":"25","status_alert":"35","recovery_alert":"25","time_life":3600,"period":"35","model":"cmon","vendor":"cmon","status":1,"unit":"°C","mqtt_id":2,"mqtt_data_value":"BAACTW02/DATA","mqtt_data_control":"BAACTW02/CONTROL","mqtt_control_on":"1","mqtt_control_off":"0","measurement":"temperature","location_name":"ธกส ระบบพัดลม","mqtt_name":"อาคาร 1 ชั้น 2","mqtt_org":"cmon_org","mqtt_bucket":"BAACTW02","mqtt_envavorment":"measurement","max":"35","min":"25","action_id":1,"mqtt_host":"172.25.99.60","mqtt_port":1883,"mqtt_device_name":"temperature","mqtt_status_over_name":"overFan1","mqtt_status_data_name":" {\"0\":\"temperature\",\"1\":\"contRelay1\",\"2\":\"fan1\",\"3\":\"actRelay1\",\"4\":\"overFan1\",\"5\":\"contRelay2\",\"6\":\"fan2\",\"7\":\"actRelay2\",\"8\":\"overFan2\"}","mqtt_act_relay_name":"actRelay1","mqtt_control_relay_name":"contRelay1"},{"device_id":5,"type_id":2,"hardware_id":2,"type_name":"Device IO Fan1","device_name":"Fan1","status_warning":"0","recovery_warning":"1","status_alert":"0","recovery_alert":"1","time_life":3600,"period":"35","model":"cmon","vendor":"cmon","status":1,"unit":"°C","mqtt_id":2,"mqtt_data_value":"BAACTW02/DATA","mqtt_data_control":"BAACTW02/CONTROL","mqtt_control_on":"1","mqtt_control_off":"0","measurement":"fan1","location_name":"ธกส ระบบพัดลม","mqtt_name":"อาคาร 1 ชั้น 2","mqtt_org":"cmon_org","mqtt_bucket":"BAACTW02","mqtt_envavorment":"measurement","max":"35","min":"25","action_id":1,"mqtt_host":"172.25.99.60","mqtt_port":1883,"mqtt_device_name":"fan1","mqtt_status_over_name":"overFan1","mqtt_status_data_name":"{\"0\":\"temperature\",\"1\":\"contRelay1\",\"2\":\"fan1\",\"3\":\"actRelay1\",\"4\":\"overFan1\",\"5\":\"contRelay2\",\"6\":\"fan2\",\"7\":\"actRelay2\",\"8\":\"overFan2\"}","mqtt_act_relay_name":"actRelay1","mqtt_control_relay_name":"contRelay1"},{"device_id":6,"type_id":3,"hardware_id":2,"type_name":"Device IO Fan2","device_name":"Fan2","status_warning":"0","recovery_warning":"1","status_alert":"0","recovery_alert":"1","time_life":3600,"period":"35","model":"cmon","vendor":"cmon","status":1,"unit":"°C","mqtt_id":2,"mqtt_data_value":"BAACTW02/DATA","mqtt_data_control":"BAACTW02/CONTROL","mqtt_control_on":"3","mqtt_control_off":"2","measurement":"fan2","location_name":"ธกส ระบบพัดลม","mqtt_name":"อาคาร 1 ชั้น 2","mqtt_org":"cmon_org","mqtt_bucket":"BAACTW02","mqtt_envavorment":"measurement","max":"35","min":"25","action_id":1,"mqtt_host":"172.25.99.60","mqtt_port":1883,"mqtt_device_name":"fan2","mqtt_status_over_name":"overFan2","mqtt_status_data_name":" {\"0\":\"temperature\",\"1\":\"contRelay1\",\"2\":\"fan1\",\"3\":\"actRelay1\",\"4\":\"overFan1\",\"5\":\"contRelay2\",\"6\":\"fan2\",\"7\":\"actRelay2\",\"8\":\"overFan2\"}","mqtt_act_relay_name":"actRelay2","mqtt_control_relay_name":"contRelay2"}]},{"mqtt_id":3,"idhost":1,"host_name":"172.25.99.60","sort":3,"mqtt_type_id":1,"mqtt_name":"อาคาร 1 ชั้น 3","location_id":1,"location_name":"ธกส ระบบพัดลม","location_detail":"Fan","host":"172.25.99.60","port":"1883","username":"root","password":"root","secret":"Na@0955##","expire_in":"365d","token_value":"BcKyMJK-AVist7GQkkb30Fm-LZZnAVeQrG4hXWetVtYow5Wal_dIYoRYFLAV1vqlQM0J7o_OXTP62P6ktYxB3Q==","org":"cmon_org","bucket":"BAACTW03","envavorment":"measurement","updateddate":"2026-01-11 18:15:57","type_name":"MQTT","status":1,"latitude":"1.022","longitude":"-12.52","mqtt_main_id":1,"device_count":3,"device":[{"device_id":13,"type_id":1,"hardware_id":1,"type_name":"Sensor","device_name":"temperature","status_warning":"32","recovery_warning":"25","status_alert":"35","recovery_alert":"25","time_life":3600,"period":"35","model":"cmon","vendor":"cmon","status":1,"unit":"°C","mqtt_id":3,"mqtt_data_value":"BAACTW03/DATA","mqtt_data_control":"BAACTW03/CONTROL","mqtt_control_on":"1","mqtt_control_off":"0","measurement":"temperature","location_name":"ธกส ระบบพัดลม","mqtt_name":"อาคาร 1 ชั้น 3","mqtt_org":"cmon_org","mqtt_bucket":"BAACTW03","mqtt_envavorment":"measurement","max":"35","min":"25","action_id":1,"mqtt_host":"172.25.99.60","mqtt_port":1883,"mqtt_device_name":"temperature","mqtt_status_over_name":"overFan1","mqtt_status_data_name":"{\"0\":\"temperature\",\"1\":\"contRelay1\",\"2\":\"fan1\",\"3\":\"actRelay1\",\"4\":\"overFan1\",\"5\":\"contRelay2\",\"6\":\"fan2\",\"7\":\"actRelay2\",\"8\":\"overFan2\"}","mqtt_act_relay_name":"actRelay1","mqtt_control_relay_name":"contRelay1"},{"device_id":14,"type_id":2,"hardware_id":2,"type_name":"Device IO Fan1","device_name":"Fan1","status_warning":"0","recovery_warning":"1","status_alert":"0","recovery_alert":"1","time_life":3600,"period":"35","model":"cmon","vendor":"cmon","status":1,"unit":"°C","mqtt_id":3,"mqtt_data_value":"BAACTW03/DATA","mqtt_data_control":"BAACTW03/CONTROL","mqtt_control_on":"1","mqtt_control_off":"0","measurement":"fan1","location_name":"ธกส ระบบพัดลม","mqtt_name":"อาคาร 1 ชั้น 3","mqtt_org":"cmon_org","mqtt_bucket":"BAACTW03","mqtt_envavorment":"measurement","max":"35","min":"25","action_id":1,"mqtt_host":"172.25.99.60","mqtt_port":1883,"mqtt_device_name":"fan1","mqtt_status_over_name":"overFan1","mqtt_status_data_name":"{\"0\":\"temperature\",\"1\":\"contRelay1\",\"2\":\"fan1\",\"3\":\"actRelay1\",\"4\":\"overFan1\",\"5\":\"contRelay2\",\"6\":\"fan2\",\"7\":\"actRelay2\",\"8\":\"overFan2\"}","mqtt_act_relay_name":"actRelay1","mqtt_control_relay_name":"contRelay1"},{"device_id":15,"type_id":3,"hardware_id":2,"type_name":"Device IO Fan2","device_name":"Fan2","status_warning":"0","recovery_warning":"1","status_alert":"0","recovery_alert":"1","time_life":3600,"period":"35","model":"cmon","vendor":"cmon","status":1,"unit":"°C","mqtt_id":3,"mqtt_data_value":"BAACTW03/DATA","mqtt_data_control":"BAACTW03/CONTROL","mqtt_control_on":"1","mqtt_control_off":"0","measurement":"fan2","location_name":"ธกส ระบบพัดลม","mqtt_name":"อาคาร 1 ชั้น 3","mqtt_org":"cmon_org","mqtt_bucket":"BAACTW03","mqtt_envavorment":"measurement","max":"35","min":"25","action_id":1,"mqtt_host":"172.25.99.60","mqtt_port":1883,"mqtt_device_name":"fan2","mqtt_status_over_name":"overFan2","mqtt_status_data_name":"{\"0\":\"temperature\",\"1\":\"contRelay1\",\"2\":\"fan1\",\"3\":\"actRelay1\",\"4\":\"overFan1\",\"5\":\"contRelay2\",\"6\":\"fan2\",\"7\":\"actRelay2\",\"8\":\"overFan2\"}","mqtt_act_relay_name":"actRelay2","mqtt_control_relay_name":"contRelay2"}]},{"mqtt_id":4,"idhost":1,"host_name":"172.25.99.60","sort":4,"mqtt_type_id":1,"mqtt_name":"อาคาร 1 ชั้น 4","location_id":1,"location_name":"ธกส ระบบพัดลม","location_detail":"Fan","host":"172.25.99.60","port":"1883","username":"root","password":"root","secret":"Na@0955##","expire_in":"365d","token_value":"BcKyMJK-AVist7GQkkb30Fm-LZZnAVeQrG4hXWetVtYow5Wal_dIYoRYFLAV1vqlQM0J7o_OXTP62P6ktYxB3Q==","org":"cmon_org","bucket":"BAACTW04","envavorment":"measurement","updateddate":"2026-01-11 18:15:57","type_name":"MQTT","status":1,"latitude":"1.022","longitude":"-25.110","mqtt_main_id":1,"device_count":3,"device":[{"device_id":16,"type_id":1,"hardware_id":1,"type_name":"Sensor","device_name":"temperature","status_warning":"32","recovery_warning":"1","status_alert":"35","recovery_alert":"25","time_life":3600,"period":"35","model":"cmon","vendor":"cmon","status":1,"unit":"°C","mqtt_id":4,"mqtt_data_value":"BAACTW04/DATA","mqtt_data_control":"BAACTW04/CONTROL","mqtt_control_on":"1","mqtt_control_off":"0","measurement":"temperature","location_name":"ธกส ระบบพัดลม","mqtt_name":"อาคาร 1 ชั้น 4","mqtt_org":"cmon_org","mqtt_bucket":"BAACTW04","mqtt_envavorment":"measurement","max":"35","min":"25","action_id":1,"mqtt_host":"172.25.99.60","mqtt_port":1883,"mqtt_device_name":"temperature","mqtt_status_over_name":"overFan1","mqtt_status_data_name":"{\"0\":\"temperature\",\"1\":\"contRelay1\",\"2\":\"fan1\",\"3\":\"actRelay1\",\"4\":\"overFan1\",\"5\":\"contRelay2\",\"6\":\"fan2\",\"7\":\"actRelay2\",\"8\":\"overFan2\"}","mqtt_act_relay_name":"actRelay1","mqtt_control_relay_name":"contRelay1"},{"device_id":17,"type_id":2,"hardware_id":2,"type_name":"Device IO Fan1","device_name":"Fan1","status_warning":"0","recovery_warning":"1","status_alert":"0","recovery_alert":"1","time_life":3600,"period":"35","model":"cmon","vendor":"cmon","status":1,"unit":"°C","mqtt_id":4,"mqtt_data_value":"BAACTW04/DATA","mqtt_data_control":"BAACTW04/CONTROL","mqtt_control_on":"1","mqtt_control_off":"0","measurement":"fan1","location_name":"ธกส ระบบพัดลม","mqtt_name":"อาคาร 1 ชั้น 4","mqtt_org":"cmon_org","mqtt_bucket":"BAACTW04","mqtt_envavorment":"measurement","max":"35","min":"25","action_id":1,"mqtt_host":"172.25.99.60","mqtt_port":1883,"mqtt_device_name":"fan1","mqtt_status_over_name":"overFan1","mqtt_status_data_name":"{\"0\":\"temperature\",\"1\":\"contRelay1\",\"2\":\"fan1\",\"3\":\"actRelay1\",\"4\":\"overFan1\",\"5\":\"contRelay2\",\"6\":\"fan2\",\"7\":\"actRelay2\",\"8\":\"overFan2\"}","mqtt_act_relay_name":"actRelay1","mqtt_control_relay_name":"contRelay1"},{"device_id":18,"type_id":3,"hardware_id":2,"type_name":"Device IO Fan2","device_name":"Fan2","status_warning":"0","recovery_warning":"1","status_alert":"0","recovery_alert":"1","time_life":3600,"period":"35","model":"cmon","vendor":"cmon","status":1,"unit":"°C","mqtt_id":4,"mqtt_data_value":"BAACTW04/DATA","mqtt_data_control":"BAACTW04/CONTROL","mqtt_control_on":"1","mqtt_control_off":"0","measurement":"fan2","location_name":"ธกส ระบบพัดลม","mqtt_name":"อาคาร 1 ชั้น 4","mqtt_org":"cmon_org","mqtt_bucket":"BAACTW04","mqtt_envavorment":"measurement","max":"35","min":"25","action_id":1,"mqtt_host":"172.25.99.60","mqtt_port":1883,"mqtt_device_name":"fan2","mqtt_status_over_name":"overFan2","mqtt_status_data_name":"{\"0\":\"temperature\",\"1\":\"contRelay1\",\"2\":\"fan1\",\"3\":\"actRelay1\",\"4\":\"overFan1\",\"5\":\"contRelay2\",\"6\":\"fan2\",\"7\":\"actRelay2\",\"8\":\"overFan2\"}","mqtt_act_relay_name":"actRelay2","mqtt_control_relay_name":"contRelay2"}]},{"mqtt_id":5,"idhost":1,"host_name":"172.25.99.60","sort":5,"mqtt_type_id":1,"mqtt_name":"อาคาร 1 ชั้น 5","location_id":1,"location_name":"ธกส ระบบพัดลม","location_detail":"Fan","host":"172.25.99.60","port":"1883","username":"root","password":"root","secret":"Na@0955##","expire_in":"365d","token_value":"BcKyMJK-AVist7GQkkb30Fm-LZZnAVeQrG4hXWetVtYow5Wal_dIYoRYFLAV1vqlQM0J7o_OXTP62P6ktYxB3Q==","org":"cmon_org","bucket":"BAACTW05","envavorment":"measurement","updateddate":"2026-01-11 18:15:57","type_name":"MQTT","status":1,"latitude":"1.022","longitude":"-12.52","mqtt_main_id":1,"device_count":0,"device":[]},{"mqtt_id":6,"idhost":1,"host_name":"172.25.99.60","sort":6,"mqtt_type_id":1,"mqtt_name":"อาคาร 1 ชั้น 6","location_id":1,"location_name":"ธกส ระบบพัดลม","location_detail":"Fan","host":"172.25.99.60","port":"1883","username":"root","password":"root","secret":"Na@0955##","expire_in":"365d","token_value":"BcKyMJK-AVist7GQkkb30Fm-LZZnAVeQrG4hXWetVtYow5Wal_dIYoRYFLAV1vqlQM0J7o_OXTP62P6ktYxB3Q==","org":"cmon_org","bucket":"BAACTW06","envavorment":"measurement","updateddate":"2026-01-11 18:15:57","type_name":"MQTT","status":1,"latitude":"","longitude":"","mqtt_main_id":1,"device_count":0,"device":[]},{"mqtt_id":7,"idhost":1,"host_name":"172.25.99.60","sort":7,"mqtt_type_id":1,"mqtt_name":"อาคาร 1 ชั้น 7","location_id":1,"location_name":"ธกส ระบบพัดลม","location_detail":"Fan","host":"172.25.99.60","port":"1883","username":"root","password":"root","secret":"Na@0955##","expire_in":"365d","token_value":"BcKyMJK-AVist7GQkkb30Fm-LZZnAVeQrG4hXWetVtYow5Wal_dIYoRYFLAV1vqlQM0J7o_OXTP62P6ktYxB3Q==","org":"cmon_org","bucket":"BAACTW07","envavorment":"measurement","updateddate":"2026-01-11 18:15:57","type_name":"MQTT","status":1,"latitude":"","longitude":"","mqtt_main_id":1,"device_count":0,"device":[]},{"mqtt_id":8,"idhost":1,"host_name":"172.25.99.60","sort":8,"mqtt_type_id":1,"mqtt_name":"อาคาร 1 ชั้น 8","location_id":1,"location_name":"ธกส ระบบพัดลม","location_detail":"Fan","host":"172.25.99.60","port":"1883","username":"root","password":"root","secret":"Na@0955##","expire_in":"365d","token_value":"BcKyMJK-AVist7GQkkb30Fm-LZZnAVeQrG4hXWetVtYow5Wal_dIYoRYFLAV1vqlQM0J7o_OXTP62P6ktYxB3Q==","org":"cmon_org","bucket":"BAACTW08","envavorment":"measurement","updateddate":"2026-01-11 18:15:57","type_name":"MQTT","status":1,"latitude":null,"longitude":null,"mqtt_main_id":1,"device_count":0,"device":[]},{"mqtt_id":9,"idhost":1,"host_name":"172.25.99.60","sort":9,"mqtt_type_id":1,"mqtt_name":"อาคาร 1 ชั้น 9","location_id":1,"location_name":"ธกส ระบบพัดลม","location_detail":"Fan","host":"172.25.99.60","port":"1883","username":"root","password":"root","secret":"Na@0955##","expire_in":"365d","token_value":"BcKyMJK-AVist7GQkkb30Fm-LZZnAVeQrG4hXWetVtYow5Wal_dIYoRYFLAV1vqlQM0J7o_OXTP62P6ktYxB3Q==","org":"cmon_org","bucket":"BAACTW09","envavorment":"measurement","updateddate":"2026-01-11 18:15:57","type_name":"MQTT","status":1,"latitude":"","longitude":"","mqtt_main_id":1,"device_count":0,"device":[]},{"mqtt_id":10,"idhost":1,"host_name":"172.25.99.60","sort":10,"mqtt_type_id":1,"mqtt_name":"อาคาร 1 ชั้น 10","location_id":1,"location_name":"ธกส ระบบพัดลม","location_detail":"Fan","host":"172.25.99.60","port":"1883","username":"root","password":"root","secret":"Na@0955##","expire_in":"365d","token_value":"BcKyMJK-AVist7GQkkb30Fm-LZZnAVeQrG4hXWetVtYow5Wal_dIYoRYFLAV1vqlQM0J7o_OXTP62P6ktYxB3Q==","org":"cmon_org","bucket":"BAACTW10","envavorment":"measurement","updateddate":"2026-01-11 18:15:57","type_name":"MQTT","status":1,"latitude":null,"longitude":null,"mqtt_main_id":1,"device_count":0,"device":[]}]},"message":"list mqtt success..","message_th":"lists mqtt success.."}