{"statusCode":200,"code":200,"payload":{"page":1,"currentPage":1,"pageSize":10,"totalPages":2,"total":16,"filter":{"device_id":"","mqtt_id":"","type_id":"","hardware_id":1,"org":"","bucket":"","keyword":"","type_name":"","host":"","port":"","password":"","createddate":"","isCount":0,"page":1,"pageSize":10},"data":[{"device_id":1,"host_id":"e9ba03b6-7e67-4592-8ee7-4b5f3f0ce461","sort":1,"mqtt_id":1,"setting_id":1,"type_id":1,"device_name":"temperature","host_name":"172.25.99.60","port":"1883","sn":"BAACTW01","hardware_id":1,"typename":"Sensor","status_warning":"32","recovery_warning":"1","status_alert":"35","recovery_alert":"25","time_life":3600,"period":"35","work_status":1,"max":"35","min":"25","oid":"1","mqtt_data_value":"BAACTW01/DATA","mqtt_data_control":"BAACTW01/CONTROL","model":"cmon","vendor":"cmon","comparevalue":"1","createddate":"2025-10-11T04:25:07.000Z","updateddate":"2026-01-10T16:37:37.000Z","status":1,"unit":"°C","action_id":1,"status_alert_id":1,"measurement":"temperature","mqtt_control_on":"1","mqtt_control_off":"0","device_org":"cmon_org","device_bucket":"BAACTW01","type_name":"Sensor","location_name":"ธกส ระบบพัดลม","configdata":"{\"0\":\"bucket\",\"1\":\"temperature\",\"2\":\"contRelay1\",\"3\":\"actRelay1\",\"4\":\"fan1\",\"5\":\"overFan1\",\"6\":\"contRelay2\",\"7\":\"actRelay2\",\"8\":\"fan2\",\"9\":\"overFan2\"}","mqtt_name":"อาคาร 1 ชั้น 1","mqtt_org":"cmon_org","mqtt_bucket":"BAACTW01","mqtt_envavorment":"measurement","mqtt_host":"172.25.99.60","mqtt_port":1883,"timestamp":"2026-01-10T16:37:37.000Z","mqtt_device_name":"temperature","mqtt_status_over_name":"overFan1","mqtt_status_data_name":"{\"0\":\"temperature\",\"1\":\"contRelay1\",\"2\":\"fan1\",\"3\":\"actRelay1\",\"4\":\"overFan1\",\"5\":\"contRelay2\",\"6\":\"fan2\",\"7\":\"actRelay2\",\"8\":\"overFan2\"}","mqtt_act_relay_name":"actRelay1","mqtt_control_relay_name":"contRelay1"},{"device_id":28,"host_id":"bdc03d8c-1d22-4b52-a436-142c3db2cb0f","sort":1,"mqtt_id":56,"setting_id":2,"type_id":8,"device_name":"Temperature 1","host_name":"broker.hivemq.com","port":"1883","sn":"temperature1-1","hardware_id":1,"typename":"Sensor","status_warning":"32","recovery_warning":"1","status_alert":"35","recovery_alert":"25","time_life":3600,"period":"35","work_status":1,"max":"35","min":"25","oid":"1","mqtt_data_value":"MRMONI05122025V5001/DATA","mqtt_data_control":"MRMONI05122025V5001/CONTROL","model":"cmon","vendor":"cmon","comparevalue":"1","createddate":"2025-10-11T04:25:07.000Z","updateddate":"2026-01-11T04:13:33.000Z","status":1,"unit":"°C","action_id":1,"status_alert_id":1,"measurement":"temperature1","mqtt_control_on":"1","mqtt_control_off":"0","device_org":"cmon_org","device_bucket":"CMONBUGKET","type_name":"Sensor IO1","location_name":"Datacenter L1","configdata":"{\"0\":\"bucket\",\"1\":\"temperature\",\"2\":\"contRelay1\",\"3\":\"actRelay1\",\"4\":\"fan1\",\"5\":\"overFan1\",\"6\":\"contRelay2\",\"7\":\"actRelay2\",\"8\":\"fan2\",\"9\":\"overFan2\"}","mqtt_name":"CMONBUGKET","mqtt_org":"cmon_org","mqtt_bucket":"CMONBUGKET","mqtt_envavorment":"envavorment","mqtt_host":"broker.hivemq.com","mqtt_port":1883,"timestamp":"2026-01-11T04:13:33.000Z","mqtt_device_name":"temperature1","mqtt_status_over_name":"temperature1","mqtt_status_data_name":"{\"0\":\"temperature1\",\"1\":\"humidity1\",\"2\":\"temperature2\",\"3\":\"humidity2\",\"4\":\"temperature3\",\"5\":\"input1\",\"6\":\"AIR1\",\"7\":\"AIR2\",\"8\":\"UPS1\",\"9\":\"UPS2\",\"10\":\"Fire\",\"11\":\"waterleak\",\"12\":\"HSSD\",\"13\":\"Temp\"}","mqtt_act_relay_name":"actRelay1","mqtt_control_relay_name":"contRelay2"},{"device_id":29,"host_id":"bdc03d8c-1d22-4b52-a436-142c3db2cb0f","sort":1,"mqtt_id":56,"setting_id":2,"type_id":8,"device_name":"Humidity 1","host_name":"broker.hivemq.com","port":"1883","sn":"humidity1-1","hardware_id":1,"typename":"Sensor","status_warning":"60","recovery_warning":"1","status_alert":"65","recovery_alert":"55","time_life":3600,"period":"35","work_status":1,"max":"35","min":"25","oid":"1","mqtt_data_value":"MRMONI05122025V5001/DATA","mqtt_data_control":"MRMONI05122025V5001/CONTROL","model":"cmon","vendor":"cmon","comparevalue":"1","createddate":"2025-10-11T04:25:07.000Z","updateddate":"2026-01-11T04:13:59.000Z","status":1,"unit":"%","action_id":1,"status_alert_id":1,"measurement":"humidity1","mqtt_control_on":"1","mqtt_control_off":"0","device_org":"cmon_org","device_bucket":"CMONBUGKET","type_name":"Sensor IO1","location_name":"Datacenter L1","configdata":"{\"0\":\"bucket\",\"1\":\"temperature\",\"2\":\"contRelay1\",\"3\":\"actRelay1\",\"4\":\"fan1\",\"5\":\"overFan1\",\"6\":\"contRelay2\",\"7\":\"actRelay2\",\"8\":\"fan2\",\"9\":\"overFan2\"}","mqtt_name":"CMONBUGKET","mqtt_org":"cmon_org","mqtt_bucket":"CMONBUGKET","mqtt_envavorment":"envavorment","mqtt_host":"broker.hivemq.com","mqtt_port":1883,"timestamp":"2026-01-11T04:13:59.000Z","mqtt_device_name":"humidity1","mqtt_status_over_name":"overhumidity1","mqtt_status_data_name":"{\"0\":\"temperature1\",\"1\":\"humidity1\",\"2\":\"temperature2\",\"3\":\"humidity2\",\"4\":\"temperature3\",\"5\":\"input1\",\"6\":\"AIR1\",\"7\":\"AIR2\",\"8\":\"UPS1\",\"9\":\"UPS2\",\"10\":\"Fire\",\"11\":\"waterleak\",\"12\":\"HSSD\",\"13\":\"Temp\"}","mqtt_act_relay_name":"acthumidity1","mqtt_control_relay_name":"conthumidity1"},{"device_id":30,"host_id":"bdc03d8c-1d22-4b52-a436-142c3db2cb0f","sort":1,"mqtt_id":56,"setting_id":2,"type_id":9,"device_name":"Temperature 2","host_name":"broker.hivemq.com","port":"1883","sn":"temperature2-1","hardware_id":1,"typename":"Sensor","status_warning":"32","recovery_warning":"1","status_alert":"35","recovery_alert":"25","time_life":3600,"period":"35","work_status":1,"max":"35","min":"25","oid":"1","mqtt_data_value":"MRMONI05122025V5001/DATA","mqtt_data_control":"MRMONI05122025V5001/CONTROL","model":"cmon","vendor":"cmon","comparevalue":"1","createddate":"2025-10-11T04:25:07.000Z","updateddate":"2026-01-11T08:49:15.000Z","status":1,"unit":"°C","action_id":1,"status_alert_id":1,"measurement":"temperature2","mqtt_control_on":"1","mqtt_control_off":"0","device_org":"cmon_org","device_bucket":"CMONBUGKET","type_name":"Sensor IO2","location_name":"Datacenter L1","configdata":"{\"0\":\"bucket\",\"1\":\"temperature\",\"2\":\"contRelay1\",\"3\":\"actRelay1\",\"4\":\"fan1\",\"5\":\"overFan1\",\"6\":\"contRelay2\",\"7\":\"actRelay2\",\"8\":\"fan2\",\"9\":\"overFan2\"}","mqtt_name":"CMONBUGKET","mqtt_org":"cmon_org","mqtt_bucket":"CMONBUGKET","mqtt_envavorment":"envavorment","mqtt_host":"broker.hivemq.com","mqtt_port":1883,"timestamp":"2026-01-11T08:49:15.000Z","mqtt_device_name":"temperature2","mqtt_status_over_name":"overtemperature2","mqtt_status_data_name":"{\"0\":\"temperature1\",\"1\":\"humidity1\",\"2\":\"temperature2\",\"3\":\"humidity2\",\"4\":\"temperature3\",\"5\":\"input1\",\"6\":\"AIR1\",\"7\":\"AIR2\",\"8\":\"UPS1\",\"9\":\"UPS2\",\"10\":\"Fire\",\"11\":\"waterleak\",\"12\":\"HSSD\",\"13\":\"Temp\"}","mqtt_act_relay_name":"temperature2Relay","mqtt_control_relay_name":"conttemperature2"},{"device_id":31,"host_id":"bdc03d8c-1d22-4b52-a436-142c3db2cb0f","sort":1,"mqtt_id":56,"setting_id":2,"type_id":9,"device_name":"Humidity 2","host_name":"broker.hivemq.com","port":"1883","sn":"humidity2-1","hardware_id":1,"typename":"Sensor","status_warning":"60","recovery_warning":"1","status_alert":"65","recovery_alert":"55","time_life":3600,"period":"35","work_status":1,"max":"35","min":"25","oid":"1","mqtt_data_value":"MRMONI05122025V5001/DATA","mqtt_data_control":"MRMONI05122025V5001/CONTROL","model":"cmon","vendor":"cmon","comparevalue":"1","createddate":"2025-10-11T04:25:07.000Z","updateddate":"2026-01-11T08:50:07.000Z","status":1,"unit":"%","action_id":1,"status_alert_id":1,"measurement":"humidity2","mqtt_control_on":"1","mqtt_control_off":"0","device_org":"cmon_org","device_bucket":"CMONBUGKET","type_name":"Sensor IO2","location_name":"Datacenter L1","configdata":"{\"0\":\"bucket\",\"1\":\"temperature\",\"2\":\"contRelay1\",\"3\":\"actRelay1\",\"4\":\"fan1\",\"5\":\"overFan1\",\"6\":\"contRelay2\",\"7\":\"actRelay2\",\"8\":\"fan2\",\"9\":\"overFan2\"}","mqtt_name":"CMONBUGKET","mqtt_org":"cmon_org","mqtt_bucket":"CMONBUGKET","mqtt_envavorment":"envavorment","mqtt_host":"broker.hivemq.com","mqtt_port":1883,"timestamp":"2026-01-11T08:50:07.000Z","mqtt_device_name":"humidity2","mqtt_status_over_name":"overhumidity2","mqtt_status_data_name":"{\"0\":\"temperature1\",\"1\":\"humidity1\",\"2\":\"temperature2\",\"3\":\"humidity2\",\"4\":\"temperature3\",\"5\":\"input1\",\"6\":\"AIR1\",\"7\":\"AIR2\",\"8\":\"UPS1\",\"9\":\"UPS2\",\"10\":\"Fire\",\"11\":\"waterleak\",\"12\":\"HSSD\",\"13\":\"Temp\"}","mqtt_act_relay_name":"act","mqtt_control_relay_name":"cont1"},{"device_id":32,"host_id":"bdc03d8c-1d22-4b52-a436-142c3db2cb0f","sort":1,"mqtt_id":56,"setting_id":2,"type_id":10,"device_name":"Temperature 3","host_name":"broker.hivemq.com","port":"1883","sn":"temperature3-3","hardware_id":1,"typename":"Sensor","status_warning":"32","recovery_warning":"1","status_alert":"35","recovery_alert":"25","time_life":3600,"period":"35","work_status":1,"max":"35","min":"25","oid":"1","mqtt_data_value":"MRMONI05122025V5001/DATA","mqtt_data_control":"MRMONI05122025V5001/CONTROL","model":"cmon","vendor":"cmon","comparevalue":"1","createddate":"2025-10-11T04:25:07.000Z","updateddate":"2026-01-11T08:50:24.000Z","status":1,"unit":"°C","action_id":1,"status_alert_id":1,"measurement":"temperature3","mqtt_control_on":"1","mqtt_control_off":"0","device_org":"cmon_org","device_bucket":"CMONBUGKET","type_name":"Sensor IO3","location_name":"Datacenter L1","configdata":"{\"0\":\"bucket\",\"1\":\"temperature\",\"2\":\"contRelay1\",\"3\":\"actRelay1\",\"4\":\"fan1\",\"5\":\"overFan1\",\"6\":\"contRelay2\",\"7\":\"actRelay2\",\"8\":\"fan2\",\"9\":\"overFan2\"}","mqtt_name":"CMONBUGKET","mqtt_org":"cmon_org","mqtt_bucket":"CMONBUGKET","mqtt_envavorment":"envavorment","mqtt_host":"broker.hivemq.com","mqtt_port":1883,"timestamp":"2026-01-11T08:50:24.000Z","mqtt_device_name":"temperature3","mqtt_status_over_name":"overtemperature3","mqtt_status_data_name":"{\"0\":\"temperature1\",\"1\":\"humidity1\",\"2\":\"temperature2\",\"3\":\"humidity2\",\"4\":\"temperature3\",\"5\":\"input1\",\"6\":\"AIR1\",\"7\":\"AIR2\",\"8\":\"UPS1\",\"9\":\"UPS2\",\"10\":\"Fire\",\"11\":\"waterleak\",\"12\":\"HSSD\",\"13\":\"Temp\"}","mqtt_act_relay_name":"acttemperature3","mqtt_control_relay_name":"conttemperature3"},{"device_id":39,"host_id":"bdc03d8c-1d22-4b52-a436-142c3db2cb0f","sort":1,"mqtt_id":56,"setting_id":2,"type_id":12,"device_name":"Waterleak","host_name":"broker.hivemq.com","port":"1883","sn":"waterleak","hardware_id":1,"typename":"Sensor","status_warning":"0","recovery_warning":"1","status_alert":"0","recovery_alert":"1","time_life":3600,"period":"35","work_status":1,"max":"35","min":"25","oid":"1","mqtt_data_value":"MRMONI05122025V5001/DATA","mqtt_data_control":"MRMONI05122025V5001/CONTROL","model":"cmon","vendor":"cmon","comparevalue":"1","createddate":"2025-10-11T04:25:07.000Z","updateddate":"2026-01-11T09:18:14.000Z","status":1,"unit":"°C","action_id":1,"status_alert_id":1,"measurement":"waterleak","mqtt_control_on":"1","mqtt_control_off":"0","device_org":"cmon_org","device_bucket":"CMONBUGKET","type_name":"Sensor IO5","location_name":"Datacenter L1","configdata":"{\"0\":\"bucket\",\"1\":\"temperature\",\"2\":\"contRelay1\",\"3\":\"actRelay1\",\"4\":\"fan1\",\"5\":\"overFan1\",\"6\":\"contRelay2\",\"7\":\"actRelay2\",\"8\":\"fan2\",\"9\":\"overFan2\"}","mqtt_name":"CMONBUGKET","mqtt_org":"cmon_org","mqtt_bucket":"CMONBUGKET","mqtt_envavorment":"envavorment","mqtt_host":"broker.hivemq.com","mqtt_port":1883,"timestamp":"2026-01-11T09:18:14.000Z","mqtt_device_name":"waterleak","mqtt_status_over_name":"overFan1","mqtt_status_data_name":"{\"0\":\"temperature1\",\"1\":\"humidity1\",\"2\":\"temperature2\",\"3\":\"humidity2\",\"4\":\"temperature3\",\"5\":\"input1\",\"6\":\"AIR1\",\"7\":\"AIR2\",\"8\":\"UPS1\",\"9\":\"UPS2\",\"10\":\"Fire\",\"11\":\"waterleak\",\"12\":\"HSSD\",\"13\":\"Temp\"}","mqtt_act_relay_name":"actRelay1","mqtt_control_relay_name":"contRelay2"},{"device_id":42,"host_id":"bdc03d8c-1d22-4b52-a436-142c3db2cb0f","sort":1,"mqtt_id":57,"setting_id":2,"type_id":8,"device_name":"temperature","host_name":"broker.hivemq.com","port":"1883","sn":"temperature","hardware_id":1,"typename":"Sensor","status_warning":"32","recovery_warning":"1","status_alert":"35","recovery_alert":"25","time_life":3600,"period":"35","work_status":1,"max":"35","min":"25","oid":"1","mqtt_data_value":"MRTH15052025I2O1V2001/DATA","mqtt_data_control":"MRTH15052025I2O1V2001/CONTROL","model":"cmon","vendor":"cmon","comparevalue":"1","createddate":"2025-10-11T04:25:07.000Z","updateddate":"2026-01-11T09:12:59.000Z","status":1,"unit":"°C","action_id":1,"status_alert_id":1,"measurement":"temperature","mqtt_control_on":"ON","mqtt_control_off":"OFF","device_org":"cmon_org","device_bucket":"LDRBUGKET","type_name":"Sensor IO1","location_name":"Datacenter L2","configdata":"{\"0\":\"bucket\",\"1\":\"temperature\",\"2\":\"contRelay1\",\"3\":\"actRelay1\",\"4\":\"fan1\",\"5\":\"overFan1\",\"6\":\"contRelay2\",\"7\":\"actRelay2\",\"8\":\"fan2\",\"9\":\"overFan2\"}","mqtt_name":"LDRBUGKET","mqtt_org":"cmon_org","mqtt_bucket":"LDRBUGKET","mqtt_envavorment":"envavorment","mqtt_host":"broker.hivemq.com","mqtt_port":1883,"timestamp":"2026-01-11T09:12:59.000Z","mqtt_device_name":"temperature","mqtt_status_over_name":"overFan1","mqtt_status_data_name":"{\"0\":\"temperature\",\"1\":\"humidity\",\"2\":\"lux\",\"3\":\"input1status\",\"4\":\"input2status\",\"5\":\"outstatus\"}","mqtt_act_relay_name":"actRelay1","mqtt_control_relay_name":"stateair2"},{"device_id":43,"host_id":"bdc03d8c-1d22-4b52-a436-142c3db2cb0f","sort":1,"mqtt_id":57,"setting_id":2,"type_id":8,"device_name":"humidity1","host_name":"broker.hivemq.com","port":"1883","sn":"humidity1","hardware_id":1,"typename":"Sensor","status_warning":"60","recovery_warning":"1","status_alert":"65","recovery_alert":"55","time_life":3600,"period":"35","work_status":1,"max":"35","min":"25","oid":"1","mqtt_data_value":"MRTH15052025I2O1V2001/DATA","mqtt_data_control":"MRTH15052025I2O1V2001/CONTROL","model":"cmon","vendor":"cmon","comparevalue":"1","createddate":"2025-10-11T04:25:07.000Z","updateddate":"2026-01-11T09:13:21.000Z","status":1,"unit":"%","action_id":1,"status_alert_id":0,"measurement":"humidity1","mqtt_control_on":"ON","mqtt_control_off":"OFF","device_org":"cmon_org","device_bucket":"LDRBUGKET","type_name":"Sensor IO1","location_name":"Datacenter L2","configdata":"{\"0\":\"bucket\",\"1\":\"temperature\",\"2\":\"contRelay1\",\"3\":\"actRelay1\",\"4\":\"fan1\",\"5\":\"overFan1\",\"6\":\"contRelay2\",\"7\":\"actRelay2\",\"8\":\"fan2\",\"9\":\"overFan2\"}","mqtt_name":"LDRBUGKET","mqtt_org":"cmon_org","mqtt_bucket":"LDRBUGKET","mqtt_envavorment":"envavorment","mqtt_host":"broker.hivemq.com","mqtt_port":1883,"timestamp":"2026-01-11T09:13:21.000Z","mqtt_device_name":"humidity1","mqtt_status_over_name":"air1alarm","mqtt_status_data_name":"{\"0\":\"temperature\",\"1\":\"humidity\",\"2\":\"lux\",\"3\":\"input1status\",\"4\":\"input2status\",\"5\":\"outstatus\"}","mqtt_act_relay_name":"actRelay1","mqtt_control_relay_name":"contRelay2"},{"device_id":4,"host_id":"e9ba03b6-7e67-4592-8ee7-4b5f3f0ce461","sort":2,"mqtt_id":2,"setting_id":1,"type_id":1,"device_name":"temperature","host_name":"172.25.99.60","port":"1883","sn":"BAACTW02","hardware_id":1,"typename":"Sensor","status_warning":"32","recovery_warning":"25","status_alert":"35","recovery_alert":"25","time_life":3600,"period":"35","work_status":1,"max":"35","min":"25","oid":"1","mqtt_data_value":"BAACTW02/DATA","mqtt_data_control":"BAACTW02/CONTROL","model":"cmon","vendor":"cmon","comparevalue":"1","createddate":"2025-10-11T04:25:07.000Z","updateddate":"2025-10-11T04:25:07.000Z","status":1,"unit":"°C","action_id":1,"status_alert_id":1,"measurement":"temperature","mqtt_control_on":"1","mqtt_control_off":"0","device_org":"cmon_org","device_bucket":"BAACTW02","type_name":"Sensor","location_name":"ธกส ระบบพัดลม","configdata":"{\"0\":\"bucket\",\"1\":\"temperature\",\"2\":\"contRelay1\",\"3\":\"actRelay1\",\"4\":\"fan1\",\"5\":\"overFan1\",\"6\":\"contRelay2\",\"7\":\"actRelay2\",\"8\":\"fan2\",\"9\":\"overFan2\"}","mqtt_name":"อาคาร 1 ชั้น 2","mqtt_org":"cmon_org","mqtt_bucket":"BAACTW02","mqtt_envavorment":"measurement","mqtt_host":"172.25.99.60","mqtt_port":1883,"timestamp":"2025-10-11T04:25:07.000Z","mqtt_device_name":"temperature","mqtt_status_over_name":"overFan1","mqtt_status_data_name":" {\"0\":\"temperature\",\"1\":\"contRelay1\",\"2\":\"fan1\",\"3\":\"actRelay1\",\"4\":\"overFan1\",\"5\":\"contRelay2\",\"6\":\"fan2\",\"7\":\"actRelay2\",\"8\":\"overFan2\"}","mqtt_act_relay_name":"actRelay1","mqtt_control_relay_name":"contRelay1"}]},"message":"list device success.","message_th":"lists device success."}