{"statusCode":200,"code":200,"payload":{"page":1,"currentPage":1,"pageSize":10,"totalPages":2,"total":18,"filter":{"sort":"createddate-ASC","keyword":"","event":"","status":"","isCount":0,"page":1,"pageSize":10},"data":[{"schedule_id":1,"schedule_name":"TASK 1  05:00  ON","device_id":1,"start":"05:00","event":1,"sunday":1,"monday":1,"tuesday":1,"wednesday":1,"thursday":1,"friday":1,"saturday":0,"createddate":"2025-06-16 02:31:55","updateddate":"2026-01-11 17:31:02","status":1,"countRs":5},{"schedule_id":2,"schedule_name":"TASK 2 :06:00 OFF","device_id":1,"start":"06:00","event":0,"sunday":1,"monday":1,"tuesday":1,"wednesday":1,"thursday":1,"friday":1,"saturday":1,"createddate":"2025-07-04 14:54:28","updateddate":"2026-01-10 20:13:37","status":1,"countRs":2},{"schedule_id":3,"schedule_name":"TASK 3","device_id":1,"start":"07:00","event":1,"sunday":1,"monday":1,"tuesday":1,"wednesday":1,"thursday":1,"friday":1,"saturday":1,"createddate":"2025-07-04 14:56:16","updateddate":"2026-01-03 02:43:35","status":1,"countRs":4},{"schedule_id":4,"schedule_name":"TASK 4","device_id":1,"start":"08:00","event":0,"sunday":1,"monday":1,"tuesday":1,"wednesday":1,"thursday":1,"friday":1,"saturday":1,"createddate":"2025-07-04 15:16:05","updateddate":"2026-01-03 02:43:33","status":1,"countRs":2},{"schedule_id":5,"schedule_name":"TASK 5","device_id":1,"start":"09:00","event":1,"sunday":1,"monday":1,"tuesday":1,"wednesday":1,"thursday":1,"friday":1,"saturday":1,"createddate":"2025-07-04 15:18:14","updateddate":"2025-10-16 06:58:42","status":1,"countRs":2},{"schedule_id":6,"schedule_name":"TASK 6","device_id":1,"start":"10:00","event":0,"sunday":1,"monday":1,"tuesday":1,"wednesday":1,"thursday":1,"friday":1,"saturday":1,"createddate":"2025-07-04 15:21:48","updateddate":"2025-10-16 06:58:44","status":1,"countRs":2},{"schedule_id":7,"schedule_name":"TASK 7","device_id":1,"start":"11:00","event":1,"sunday":1,"monday":1,"tuesday":1,"wednesday":1,"thursday":1,"friday":1,"saturday":1,"createddate":"2025-07-04 15:23:00","updateddate":"2026-01-11 17:23:13","status":1,"countRs":3},{"schedule_id":8,"schedule_name":"TASK 8","device_id":1,"start":"12:00","event":0,"sunday":1,"monday":1,"tuesday":1,"wednesday":1,"thursday":1,"friday":1,"saturday":1,"createddate":"2025-07-04 15:25:15","updateddate":"2025-10-16 06:58:48","status":1,"countRs":3},{"schedule_id":9,"schedule_name":"TASK 9","device_id":1,"start":"13:00","event":1,"sunday":1,"monday":1,"tuesday":1,"wednesday":1,"thursday":1,"friday":1,"saturday":1,"createddate":"2025-07-04 15:34:38","updateddate":"2026-01-10 07:08:16","status":1,"countRs":3},{"schedule_id":10,"schedule_name":"TASK 10","device_id":1,"start":"12:00","event":0,"sunday":1,"monday":1,"tuesday":1,"wednesday":1,"thursday":1,"friday":1,"saturday":1,"createddate":"2025-07-04 15:35:33","updateddate":"2026-01-12 11:25:07","status":1,"countRs":3}]},"message":"list scheduled success..","message_th":"lists scheduled success.."}