{"statusCode":200,"code":200,"payload":{"page":1,"currentPage":1,"pageSize":10,"totalPages":94,"total":935,"filter":{"type_id":"","location_id":"","bucket":"","event":"","start":"","end":"","keyword":"","device_id":"","schedule_id":"","isCount":0,"page":1,"pageSize":10},"data":[{"id":"81c62eca-cec2-4821-8221-7ce7094acc15","device_id":5,"bucket":"BAACTW02","schedule_id":19,"schedule_event_start":"16:00","day":"friday","doday":"friday","dotime":"2026-01-16 16:00:25","schedule_event":"0","device_status":"0","status":"1","date":"2026-01-16","time":"16:00","createddate":"2026-01-16T09:00:25.000Z","updateddate":"2026-01-16T09:00:25.000Z","deviceid":5,"mqtt_id":2,"setting_id":1,"type_id":2,"device_name":"Fan1","mqtt_device_name":"fan1","type_name":"Device IO Fan1","location_name":"ธกส ระบบพัดลม","mqtt_name":"อาคาร 1 ชั้น 2","mqtt_org":"cmon_org","mqtt_bucket":"BAACTW02","mqtt_envavorment":"measurement","schedule_name":"TASK 12","event":0},{"id":"1c3b8b11-77d1-4d0c-87a7-616e8938fe32","device_id":9,"bucket":"AIRCOM1","schedule_id":19,"schedule_event_start":"16:00","day":"friday","doday":"friday","dotime":"2026-01-16 16:00:35","schedule_event":"c2","device_status":"c2","status":"1","date":"2026-01-16","time":"16:00","createddate":"2026-01-16T09:00:40.000Z","updateddate":"2026-01-16T09:00:40.000Z","deviceid":9,"mqtt_id":48,"setting_id":1,"type_id":5,"device_name":"AIR2","mqtt_device_name":"stateair2","type_name":"Device IO Air2","location_name":"ธกส ระบบแอร์","mqtt_name":"อาคาร 1 ชั้น 1 ระบบแอร์","mqtt_org":"cmon_org","mqtt_bucket":"AIRCOM1","mqtt_envavorment":"measurement","schedule_name":"TASK 12","event":0},{"id":"740c8c15-5a7d-4711-b76f-ebf25f51be1f","device_id":8,"bucket":"AIRCOM1","schedule_id":19,"schedule_event_start":"16:00","day":"friday","doday":"friday","dotime":"2026-01-16 16:00:25","schedule_event":"b2","device_status":"b2","status":"1","date":"2026-01-16","time":"16:00","createddate":"2026-01-16T09:00:34.000Z","updateddate":"2026-01-16T09:00:34.000Z","deviceid":8,"mqtt_id":48,"setting_id":1,"type_id":4,"device_name":"AIR1","mqtt_device_name":"stateair1","type_name":"Device IO Air1","location_name":"ธกส ระบบแอร์","mqtt_name":"อาคาร 1 ชั้น 1 ระบบแอร์","mqtt_org":"cmon_org","mqtt_bucket":"AIRCOM1","mqtt_envavorment":"measurement","schedule_name":"TASK 12","event":0},{"id":"49a001b0-7b8f-482d-845a-2313c8238913","device_id":9,"bucket":"AIRCOM1","schedule_id":19,"schedule_event_start":"16:00","day":"friday","doday":"friday","dotime":"2026-01-16 16:00:25","schedule_event":"c2","device_status":"c2","status":"1","date":"2026-01-16","time":"16:00","createddate":"2026-01-16T09:00:40.000Z","updateddate":"2026-01-16T09:00:40.000Z","deviceid":9,"mqtt_id":48,"setting_id":1,"type_id":5,"device_name":"AIR2","mqtt_device_name":"stateair2","type_name":"Device IO Air2","location_name":"ธกส ระบบแอร์","mqtt_name":"อาคาร 1 ชั้น 1 ระบบแอร์","mqtt_org":"cmon_org","mqtt_bucket":"AIRCOM1","mqtt_envavorment":"measurement","schedule_name":"TASK 12","event":0},{"id":"05f0e62f-c7fb-447d-8393-9a7e232af8cd","device_id":8,"bucket":"AIRCOM1","schedule_id":18,"schedule_event_start":"15:00","day":"friday","doday":"friday","dotime":"2026-01-16 15:00:14","schedule_event":"b1","device_status":"b1","status":"1","date":"2026-01-16","time":"15:00","createddate":"2026-01-16T08:00:18.000Z","updateddate":"2026-01-16T08:00:18.000Z","deviceid":8,"mqtt_id":48,"setting_id":1,"type_id":4,"device_name":"AIR1","mqtt_device_name":"stateair1","type_name":"Device IO Air1","location_name":"ธกส ระบบแอร์","mqtt_name":"อาคาร 1 ชั้น 1 ระบบแอร์","mqtt_org":"cmon_org","mqtt_bucket":"AIRCOM1","mqtt_envavorment":"measurement","schedule_name":"TASK 11","event":1},{"id":"cfeec47b-8c52-4313-a7ef-d72651185772","device_id":9,"bucket":"AIRCOM1","schedule_id":18,"schedule_event_start":"15:00","day":"friday","doday":"friday","dotime":"2026-01-16 15:00:24","schedule_event":"c1","device_status":"c1","status":"1","date":"2026-01-16","time":"15:00","createddate":"2026-01-16T08:00:30.000Z","updateddate":"2026-01-16T08:00:30.000Z","deviceid":9,"mqtt_id":48,"setting_id":1,"type_id":5,"device_name":"AIR2","mqtt_device_name":"stateair2","type_name":"Device IO Air2","location_name":"ธกส ระบบแอร์","mqtt_name":"อาคาร 1 ชั้น 1 ระบบแอร์","mqtt_org":"cmon_org","mqtt_bucket":"AIRCOM1","mqtt_envavorment":"measurement","schedule_name":"TASK 11","event":1},{"id":"8b7293ba-d245-4520-bb9a-1fd88326f08c","device_id":5,"bucket":"BAACTW02","schedule_id":18,"schedule_event_start":"15:00","day":"friday","doday":"friday","dotime":"2026-01-16 15:00:04","schedule_event":"1","device_status":"1","status":"1","date":"2026-01-16","time":"15:00","createddate":"2026-01-16T08:00:06.000Z","updateddate":"2026-01-16T08:00:06.000Z","deviceid":5,"mqtt_id":2,"setting_id":1,"type_id":2,"device_name":"Fan1","mqtt_device_name":"fan1","type_name":"Device IO Fan1","location_name":"ธกส ระบบพัดลม","mqtt_name":"อาคาร 1 ชั้น 2","mqtt_org":"cmon_org","mqtt_bucket":"BAACTW02","mqtt_envavorment":"measurement","schedule_name":"TASK 11","event":1},{"id":"b71141fa-81ae-4195-adc2-390e163dc53d","device_id":8,"bucket":"AIRCOM1","schedule_id":20,"schedule_event_start":"18:00","day":"thursday","doday":"thursday","dotime":"2026-01-15 18:00:37","schedule_event":"b1","device_status":"b1","status":"1","date":"2026-01-15","time":"18:00","createddate":"2026-01-15T11:00:38.000Z","updateddate":"2026-01-15T11:00:38.000Z","deviceid":8,"mqtt_id":48,"setting_id":1,"type_id":4,"device_name":"AIR1","mqtt_device_name":"stateair1","type_name":"Device IO Air1","location_name":"ธกส ระบบแอร์","mqtt_name":"อาคาร 1 ชั้น 1 ระบบแอร์","mqtt_org":"cmon_org","mqtt_bucket":"AIRCOM1","mqtt_envavorment":"measurement","schedule_name":"TASK 13","event":1},{"id":"71cbf8ee-67ba-4eac-a269-ec035ec10cfd","device_id":5,"bucket":"BAACTW02","schedule_id":20,"schedule_event_start":"18:00","day":"thursday","doday":"thursday","dotime":"2026-01-15 18:00:27","schedule_event":"1","device_status":"1","status":"1","date":"2026-01-15","time":"18:00","createddate":"2026-01-15T11:00:29.000Z","updateddate":"2026-01-15T11:00:29.000Z","deviceid":5,"mqtt_id":2,"setting_id":1,"type_id":2,"device_name":"Fan1","mqtt_device_name":"fan1","type_name":"Device IO Fan1","location_name":"ธกส ระบบพัดลม","mqtt_name":"อาคาร 1 ชั้น 2","mqtt_org":"cmon_org","mqtt_bucket":"BAACTW02","mqtt_envavorment":"measurement","schedule_name":"TASK 13","event":1},{"id":"aefe1bca-7b96-4f2c-8433-86d2b6a50e41","device_id":5,"bucket":"BAACTW02","schedule_id":19,"schedule_event_start":"16:00","day":"thursday","doday":"thursday","dotime":"2026-01-15 16:16:16","schedule_event":"0","device_status":"0","status":"1","date":"2026-01-15","time":"16:16","createddate":"2026-01-15T09:16:17.000Z","updateddate":"2026-01-15T09:16:20.000Z","deviceid":5,"mqtt_id":2,"setting_id":1,"type_id":2,"device_name":"Fan1","mqtt_device_name":"fan1","type_name":"Device IO Fan1","location_name":"ธกส ระบบพัดลม","mqtt_name":"อาคาร 1 ชั้น 2","mqtt_org":"cmon_org","mqtt_bucket":"BAACTW02","mqtt_envavorment":"measurement","schedule_name":"TASK 12","event":0}]},"message":"ok","message_th":"success"}